EESchema Schematic File Version 4
EELAYER 30 0
EELAYER END
$Descr A4 11693 8268
encoding utf-8
Sheet 1 1
Title ""
Date ""
Rev ""
Comp ""
Comment1 ""
Comment2 ""
Comment3 ""
Comment4 ""
$EndDescr
$Comp
L heizung:Heizung U?
U 1 1 601946D5
P 1100 3550
F 0 "U?" H 1133 3675 50  0000 C CNN
F 1 "Heizung" H 1133 3584 50  0000 C CNN
F 2 "" H 1100 3550 50  0001 C CNN
F 3 "" H 1100 3550 50  0001 C CNN
	1    1100 3550
	1    0    0    -1  
$EndComp
$Comp
L heizung:Tank600L U?
U 1 1 60195278
P 5350 2450
F 0 "U?" H 5375 1127 50  0000 C CNN
F 1 "Tank600L" H 5375 1036 50  0000 C CNN
F 2 "" H 5350 2450 50  0001 C CNN
F 3 "" H 5350 2450 50  0001 C CNN
	1    5350 2450
	1    0    0    -1  
$EndComp
$Comp
L heizung:3-WegeVentil U?
U 1 1 601961A8
P 2800 1350
F 0 "U?" V 2754 1278 50  0000 L CNN
F 1 "3-WegeVentil" V 2845 1278 50  0000 L CNN
F 2 "" H 2800 1350 50  0001 C CNN
F 3 "" H 2800 1350 50  0001 C CNN
	1    2800 1350
	0    1    1    0   
$EndComp
$Comp
L heizung:2-WegeVentil U?
U 1 1 601979F7
P 3300 3950
F 0 "U?" H 3300 4015 50  0000 C CNN
F 1 "2-WegeVentil" H 3300 3924 50  0000 C CNN
F 2 "" H 3300 3950 50  0001 C CNN
F 3 "" H 3300 3950 50  0001 C CNN
	1    3300 3950
	1    0    0    -1  
$EndComp
$Comp
L heizung:Heizkreis U?
U 1 1 6019851D
P 10200 3250
F 0 "U?" H 10618 3126 50  0000 L CNN
F 1 "Heizkreis" H 10618 3035 50  0000 L CNN
F 2 "" H 10200 3250 50  0001 C CNN
F 3 "" H 10200 3250 50  0001 C CNN
	1    10200 3250
	1    0    0    -1  
$EndComp
$Comp
L heizung:WWKreis U?
U 1 1 60199015
P 9250 3700
F 0 "U?" H 9628 3576 50  0000 L CNN
F 1 "WWKreis" H 9628 3485 50  0000 L CNN
F 2 "" H 9250 3700 50  0001 C CNN
F 3 "" H 9250 3700 50  0001 C CNN
	1    9250 3700
	1    0    0    -1  
$EndComp
$Comp
L heizung:Pumpe U?
U 1 1 601997E4
P 9200 2700
F 0 "U?" H 9200 2815 50  0000 C CNN
F 1 "Pumpe" H 9200 2724 50  0000 C CNN
F 2 "" H 9200 2700 50  0001 C CNN
F 3 "" H 9200 2700 50  0001 C CNN
	1    9200 2700
	1    0    0    -1  
$EndComp
$Comp
L heizung:Pressfitting28-1"AG U?
U 1 1 601A2F41
P 1450 1550
F 0 "U?" V 1521 1323 50  0000 R CNN
F 1 "Pressfitting28-1\"AG" V 1430 1323 50  0000 R CNN
F 2 "" H 1450 1550 50  0001 C CNN
F 3 "" H 1450 1550 50  0001 C CNN
	1    1450 1550
	0    -1   -1   0   
$EndComp
$Comp
L heizung:Reduzierung1.5-1 U?
U 1 1 601A35F1
P 4650 1800
F 0 "U?" H 4600 1385 50  0000 C CNN
F 1 "Reduzierung1.5-1" H 4600 1476 50  0000 C CNN
F 2 "" H 4650 1800 50  0001 C CNN
F 3 "" H 4650 1800 50  0001 C CNN
	1    4650 1800
	-1   0    0    1   
$EndComp
$Comp
L heizung:Verschraubung1"AGIG U?
U 1 1 601A3C7A
P 3400 1500
F 0 "U?" H 3375 1615 50  0000 C CNN
F 1 "Verschraubung1\"AGIG" H 3375 1524 50  0000 C CNN
F 2 "" H 3400 1500 50  0001 C CNN
F 3 "" H 3400 1500 50  0001 C CNN
	1    3400 1500
	1    0    0    -1  
$EndComp
$Comp
L heizung:Reduzierung1.5-1-AGAG U?
U 1 1 601A660F
P 4600 4200
F 0 "U?" H 4517 3885 50  0000 C CNN
F 1 "Reduzierung1.5-1-AGAG" H 4517 3976 50  0000 C CNN
F 2 "" H 4600 4200 50  0001 C CNN
F 3 "" H 4600 4200 50  0001 C CNN
	1    4600 4200
	-1   0    0    1   
$EndComp
$Comp
L heizung:Hahn-1"-AG-AG U?
U 1 1 601ACD6A
P 4050 1550
F 0 "U?" H 4050 1748 50  0000 C CNN
F 1 "Hahn1\"AGAG" H 4050 1657 50  0000 C CNN
F 2 "" H 4050 1550 50  0001 C CNN
F 3 "" H 4050 1550 50  0001 C CNN
	1    4050 1550
	1    0    0    -1  
$EndComp
$Comp
L heizung:Verschraubung1"AGIG U?
U 1 1 601C2BB1
P 2150 1500
F 0 "U?" H 2150 1085 50  0000 C CNN
F 1 "Verschraubung1\"AGIG" H 2150 1176 50  0000 C CNN
F 2 "" H 2150 1500 50  0001 C CNN
F 3 "" H 2150 1500 50  0001 C CNN
	1    2150 1500
	-1   0    0    1   
$EndComp
$Comp
L heizung:Reduzierung1.5-1 U?
U 1 1 601C506C
P 4550 3350
F 0 "U?" H 4500 2935 50  0000 C CNN
F 1 "Reduzierung1.5-1" H 4500 3026 50  0000 C CNN
F 2 "" H 4550 3350 50  0001 C CNN
F 3 "" H 4550 3350 50  0001 C CNN
	1    4550 3350
	-1   0    0    1   
$EndComp
Wire Wire Line
	4700 3200 4900 3200
Wire Wire Line
	4350 1650 4500 1650
Wire Wire Line
	3750 1650 3550 1650
$Comp
L heizung:Pressfitting28-1"AG U?
U 1 1 601C96EB
P 2300 3050
F 0 "U?" H 2275 3165 50  0000 C CNN
F 1 "Pressfitting28-1\"AG" H 2275 3074 50  0000 C CNN
F 2 "" H 2300 3050 50  0001 C CNN
F 3 "" H 2300 3050 50  0001 C CNN
	1    2300 3050
	1    0    0    -1  
$EndComp
$Comp
L heizung:Verschraubung1"AGIG U?
U 1 1 601CA5BB
P 3150 3350
F 0 "U?" H 3150 2935 50  0000 C CNN
F 1 "Verschraubung1\"AGIG" H 3150 3026 50  0000 C CNN
F 2 "" H 3150 3350 50  0001 C CNN
F 3 "" H 3150 3350 50  0001 C CNN
	1    3150 3350
	-1   0    0    1   
$EndComp
$Comp
L heizung:Hahn-1"-AG-IG U?
U 1 1 601CBBA7
P 3950 3100
F 0 "U?" H 3950 3298 50  0000 C CNN
F 1 "Hahn-1\"-AG-IG" H 3950 3207 50  0000 C CNN
F 2 "" H 3950 3100 50  0001 C CNN
F 3 "" H 3950 3100 50  0001 C CNN
	1    3950 3100
	1    0    0    -1  
$EndComp
Wire Wire Line
	4250 3200 4400 3200
Wire Wire Line
	1600 1350 2000 1350
Wire Wire Line
	2300 1350 2400 1350
Wire Wire Line
	2700 1650 3250 1650
$Comp
L heizung:Pressfitting28-1"AG U?
U 1 1 601DCD7E
P 2200 4600
F 0 "U?" H 2175 4715 50  0000 C CNN
F 1 "Pressfitting28-1\"AG" H 2175 4624 50  0000 C CNN
F 2 "" H 2200 4600 50  0001 C CNN
F 3 "" H 2200 4600 50  0001 C CNN
	1    2200 4600
	1    0    0    -1  
$EndComp
Wire Wire Line
	6050 2900 5850 2900
Wire Wire Line
	8400 2900 8900 2900
Wire Wire Line
	9500 2900 9950 2900
$Comp
L heizung:Reduzierung1.5-1 U?
U 1 1 6020EA9A
P 6000 2050
F 0 "U?" H 5942 2198 50  0000 C CNN
F 1 "Reduzierung1.5-1" H 5942 2107 50  0000 C CNN
F 2 "" H 6000 2050 50  0001 C CNN
F 3 "" H 6000 2050 50  0001 C CNN
	1    6000 2050
	1    0    0    -1  
$EndComp
$Comp
L heizung:Verschraubung1"AGIG U?
U 1 1 602136D3
P 6750 2050
F 0 "U?" H 6725 2165 50  0000 C CNN
F 1 "Verschraubung1\"AGIG" H 6725 2074 50  0000 C CNN
F 2 "" H 6750 2050 50  0001 C CNN
F 3 "" H 6750 2050 50  0001 C CNN
	1    6750 2050
	1    0    0    -1  
$EndComp
$Comp
L heizung:Verschraubung1"AGIG U?
U 1 1 6021CD39
P 2550 4250
F 0 "U?" H 2550 3835 50  0000 C CNN
F 1 "Verschraubung1\"AGIG" H 2550 3926 50  0000 C CNN
F 2 "" H 2550 4250 50  0001 C CNN
F 3 "" H 2550 4250 50  0001 C CNN
	1    2550 4250
	-1   0    0    1   
$EndComp
$Comp
L heizung:Verschraubung1"AGIG U?
U 1 1 6021F424
P 3950 3950
F 0 "U?" H 3950 4098 50  0000 C CNN
F 1 "Verschraubung1\"AGIG" H 3950 4007 50  0000 C CNN
F 2 "" H 3950 3950 50  0001 C CNN
F 3 "" H 3950 3950 50  0001 C CNN
	1    3950 3950
	1    0    0    -1  
$EndComp
$Comp
L heizung:Reduzierung1.5-1 U?
U 1 1 60232100
P 6650 3800
F 0 "U?" H 6592 3948 50  0000 C CNN
F 1 "Reduzierung1.5-1" H 6592 3857 50  0000 C CNN
F 2 "" H 6650 3800 50  0001 C CNN
F 3 "" H 6650 3800 50  0001 C CNN
	1    6650 3800
	1    0    0    -1  
$EndComp
Wire Wire Line
	4900 2600 4900 1650
Wire Wire Line
	4900 1650 4800 1650
Wire Wire Line
	1550 3650 1600 3650
Wire Wire Line
	1600 1700 1600 3650
Wire Wire Line
	5850 2600 5850 2200
Wire Wire Line
	3650 3200 3300 3200
Wire Wire Line
	3000 3200 2500 3200
Wire Wire Line
	1800 3200 1800 3800
Wire Wire Line
	1800 3800 1550 3800
Wire Wire Line
	1800 3200 2150 3200
Wire Notes Line
	7750 3200 10650 3200
Wire Notes Line
	10650 3200 10650 2450
Wire Notes Line
	10650 2450 7750 2450
Wire Notes Line
	7750 2450 7750 3200
Wire Notes Line
	3750 1300 3750 1850
Wire Notes Line
	3750 1850 5000 1850
Wire Notes Line
	5000 1850 5000 1300
Wire Notes Line
	5000 1300 3750 1300
Wire Notes Line
	2100 2850 2100 3450
Wire Notes Line
	2100 3450 4700 3450
Wire Notes Line
	4700 3450 4700 2850
Wire Notes Line
	4700 2850 2100 2850
Wire Notes Line
	6050 2600 6050 3100
Wire Notes Line
	6050 3100 7550 3100
Wire Notes Line
	7550 3100 7550 2600
Wire Notes Line
	7550 2600 6050 2600
Wire Wire Line
	2400 4750 2400 4100
Wire Notes Line
	4850 3700 4850 4950
Wire Notes Line
	4850 4950 2000 4950
Wire Notes Line
	2000 4950 2000 3700
Wire Notes Line
	2000 3700 4850 3700
Wire Wire Line
	2050 4750 1550 4750
Wire Wire Line
	1550 4750 1550 3950
Wire Wire Line
	2700 4100 3000 4100
Wire Wire Line
	3600 4100 3800 4100
Wire Wire Line
	4100 4100 4450 4100
Wire Wire Line
	4750 4100 4900 4100
Wire Wire Line
	4900 4100 4900 3500
Wire Wire Line
	2400 4750 9850 4750
Wire Wire Line
	9850 3500 9850 4750
Connection ~ 2400 4750
Wire Notes Line
	1300 1000 1300 1900
Wire Notes Line
	1300 1900 3600 1900
Wire Notes Line
	3600 1900 3600 1000
Wire Notes Line
	3600 1000 1300 1000
Wire Wire Line
	6600 2200 6150 2200
$Comp
L heizung:Verschraubung1"AGIG U?
U 1 1 602AB6B2
P 7400 3800
F 0 "U?" H 7375 3915 50  0000 C CNN
F 1 "Verschraubung1\"AGIG" H 7375 3824 50  0000 C CNN
F 2 "" H 7400 3800 50  0001 C CNN
F 3 "" H 7400 3800 50  0001 C CNN
	1    7400 3800
	1    0    0    -1  
$EndComp
Wire Wire Line
	5850 3200 6200 3200
Wire Wire Line
	6200 3200 6200 3950
Wire Wire Line
	6200 3950 6500 3950
Wire Wire Line
	6800 3950 7250 3950
$Comp
L heizung:Pressfitting28-1"AG U?
U 1 1 602B406D
P 8200 4100
F 0 "U?" H 8225 3735 50  0000 C CNN
F 1 "Pressfitting28-1\"AG" H 8225 3826 50  0000 C CNN
F 2 "" H 8200 4100 50  0001 C CNN
F 3 "" H 8200 4100 50  0001 C CNN
	1    8200 4100
	-1   0    0    1   
$EndComp
Wire Wire Line
	7550 3950 8000 3950
Wire Wire Line
	8350 3950 8850 3950
Wire Notes Line
	8600 3550 8600 4150
Wire Notes Line
	8600 4150 6100 4150
Wire Notes Line
	6100 4150 6100 3550
Wire Notes Line
	6100 3550 8600 3550
$Comp
L heizung:Pressfitting28-1"AG U?
U 1 1 602BACAE
P 7600 2350
F 0 "U?" H 7625 1985 50  0000 C CNN
F 1 "Pressfitting28-1\"AG" H 7625 2076 50  0000 C CNN
F 2 "" H 7600 2350 50  0001 C CNN
F 3 "" H 7600 2350 50  0001 C CNN
	1    7600 2350
	-1   0    0    1   
$EndComp
Wire Wire Line
	7400 2200 6900 2200
Wire Wire Line
	7750 2200 8850 2200
Wire Wire Line
	8850 2200 8850 3800
Wire Notes Line
	8050 2350 8050 1800
Wire Notes Line
	8050 1800 5550 1800
Wire Notes Line
	5550 1800 5550 2350
Wire Notes Line
	5550 2350 8050 2350
Wire Wire Line
	7450 2900 7650 2900
Wire Wire Line
	8400 1050 8400 2400
Wire Wire Line
	8400 2400 7650 2400
Wire Wire Line
	7650 2400 7650 2900
Connection ~ 7650 2900
Wire Wire Line
	7650 2900 8100 2900
Wire Wire Line
	9850 3350 9850 3250
Wire Wire Line
	9850 3250 11150 3250
Wire Wire Line
	11150 3250 11150 2900
Wire Wire Line
	11150 2900 10250 2900
$Comp
L heizung:HalbeVerschraubung-28-1.5" U?
U 1 1 602D66AE
P 8250 3050
F 0 "U?" H 8167 2635 50  0000 C CNN
F 1 "HalbeVerschraubung-28-1.5\"" H 8167 2726 50  0000 C CNN
F 2 "" H 8250 3050 50  0001 C CNN
F 3 "" H 8250 3050 50  0001 C CNN
	1    8250 3050
	-1   0    0    1   
$EndComp
$Comp
L heizung:Reduzierung1.5-1 U?
U 1 1 602DC81C
P 6200 2750
F 0 "U?" H 6142 2898 50  0000 C CNN
F 1 "Reduzierung1.5-1" H 6142 2807 50  0000 C CNN
F 2 "" H 6200 2750 50  0001 C CNN
F 3 "" H 6200 2750 50  0001 C CNN
	1    6200 2750
	1    0    0    -1  
$EndComp
$Comp
L heizung:Hahn-1"-AG-IG U?
U 1 1 602E2E77
P 6650 3000
F 0 "U?" H 6650 2635 50  0000 C CNN
F 1 "Hahn-1\"-AG-IG" H 6650 2726 50  0000 C CNN
F 2 "" H 6650 3000 50  0001 C CNN
F 3 "" H 6650 3000 50  0001 C CNN
	1    6650 3000
	-1   0    0    1   
$EndComp
$Comp
L heizung:Pressfitting28-1"AG U?
U 1 1 602E6D12
P 7300 3050
F 0 "U?" H 7325 2685 50  0000 C CNN
F 1 "Pressfitting28-1\"AG" H 7325 2776 50  0000 C CNN
F 2 "" H 7300 3050 50  0001 C CNN
F 3 "" H 7300 3050 50  0001 C CNN
	1    7300 3050
	-1   0    0    1   
$EndComp
Wire Wire Line
	7100 2900 6950 2900
$Comp
L heizung:Verschraubung1"AGIG U?
U 1 1 602EE831
P 2850 900
F 0 "U?" H 2825 1015 50  0000 C CNN
F 1 "Verschraubung1\"AGIG" H 2825 924 50  0000 C CNN
F 2 "" H 2850 900 50  0001 C CNN
F 3 "" H 2850 900 50  0001 C CNN
	1    2850 900 
	1    0    0    -1  
$EndComp
$Comp
L heizung:Pressfitting28-1"AG U?
U 1 1 602EFC6A
P 3650 1200
F 0 "U?" H 3675 835 50  0000 C CNN
F 1 "Pressfitting28-1\"AG" H 3675 926 50  0000 C CNN
F 2 "" H 3650 1200 50  0001 C CNN
F 3 "" H 3650 1200 50  0001 C CNN
	1    3650 1200
	-1   0    0    1   
$EndComp
Wire Wire Line
	3450 1050 3000 1050
Wire Wire Line
	3800 1050 8400 1050
$Comp
L heizung:HalbeVerschraubung-28-1.5" U?
U 1 1 602F978B
P 10100 2750
F 0 "U?" H 10017 2898 50  0000 C CNN
F 1 "HalbeVerschraubung-28-1.5\"" H 10017 2807 50  0000 C CNN
F 2 "" H 10100 2750 50  0001 C CNN
F 3 "" H 10100 2750 50  0001 C CNN
	1    10100 2750
	1    0    0    -1  
$EndComp
$EndSCHEMATC
